L’Attestation - La signature des confinements latins
…
Choisir nos bornes temporelles

date_beginn = ymd(20200301)
date_end = ymd(20200601)

Filtrer et agréger

google_mobility_country |> 
  filter(between(date, date_beginn, date_end)) |> 
  group_by(iso3c) |> 
  summarise(across(4:9, ~ mean(.x, na.rm = T)))

# A tibble: 135 × 7
   iso3c grocery_pharmacy    parks transit_stations workplaces residential
   <chr>            <dbl>    <dbl>            <dbl>      <dbl>       <dbl>
 1 ABW             -20.1  -32.2               -51.3     -43.9        19.8 
 2 AFG             -13.0   -9.92              -30.9     -21.1         9.22
 3 AGO             -16.3  -21.5               -41.6     -22.5        16.7 
 4 ARE             -19.3  -54.6               -56.5     -35.4        21.3 
 5 ARG             -28.0  -73.5               -51.9     -36.8        19.7 
 6 ATG             -24.4  -28.6               -51.1     -41.6        16.9 
 7 AUS              -1.32 -24.6               -42.6     -22.8        12.1 
 8 AUT             -18.7   -8.76              -46.3     -37.5        13.4 
 9 BEL             -16.6   -3.46              -49.1     -43.0        18.1 
10 BEN              -3.51   0.0215            -13.9      -6.25        6.43
# ℹ 125 more rows
# ℹ 1 more variable: timestamp <dttm>
…
